{
    "defaultSeverity": "error",
    "extends": ["tslint:recommended"],
    "jsRules": {
      "no-unused-expression": true
    },
    "rules": {
      "quotemark": [true, "single"],
      "member-access": [false],
      "ordered-imports": [false],
      "max-line-length": [true, 150],
      "member-ordering": [false],
      "interface-name": [false],
      "arrow-parens": false,
      "object-literal-sort-keys": false,
      "no-console": false,
      "trailing-comma": false,
      "variable-name": {
        "options": [
          "ban-keywords",
          "check-format",
          "allow-leading-underscore",
          "allow-pascal-case"
        ]
        }
    },
    "rulesDirectory": []
}
  